{
    "name": "Install",
    "alias": "install",
    "description": "",
    "keywords": [],
    "active": 1,
    "order": 0,
    "providers": [
        "Install\\Providers\\InstallServiceProvider"
    ],
    "aliases":{},
    "files": [
        "start.php"
    ]
}