{
    "name": "Delivery",
    "alias": "delivery",
    "description": "",
    "keywords": [],
    "active": 1,
    "order": 0,
    "providers": [
        "Delivery\\Providers\\DeliveryServiceProvider"
    ],
    "aliases":{},
    "files": [
        "start.php"
    ]
}